R u Ready - Hands On – Tidy & Transform (Einheiten 7 und 8)
…
dat_full_combined_filters <- dat_full |>  
  filter(group_all == "below", vp_propcorrect < 0.6) |>  
  filter(strategies >= 2 | mean_rl_all != 4.5)

select()

Übungen zu select()

Wähle die Variablen (bzw. Spalten) code, group_all, vp_sum und cvstm_propcorrect aus dat_full aus

Lösung

select(dat_full, c(code, group_all, vp_sum, cvstm_propcorrect))

# A tibble: 159 × 4
    code group_all vp_sum cvstm_propcorrect
   <dbl> <chr>      <dbl>             <dbl>
 1     1 above         33             0.583
 2     2 control       27             0.608
 3     3 below         33             0.775
 4     4 below         31             0.692
 5     5 above         32             0.658
 6     6 control       24             0.6  
 7     7 control       28             0.783
 8     8 below         27             0.708
 9     9 above         28             0.6  
10    10 below         26             0.75 
# ℹ 149 more rows

Kombination von filter() und select()

Wähle alle Personen aus der Gruppe “above” aus, die mehr als 0.8 in vp_propcorrect haben,

und zeige nur code, group_all, vp_sum, vp_propcorrect an.

Lösung

dat_full |>  
  filter(group_all == "above", vp_propcorrect > 0.8) |>  
  select(code, group_all, vp_sum, vp_propcorrect)

# A tibble: 40 × 4
    code group_all vp_sum vp_propcorrect
   <dbl> <chr>      <dbl>          <dbl>
 1     1 above         33          0.917
 2     5 above         32          0.889
 3    15 above         34          0.944
 4    24 above         31          0.861
 5    27 above         31          0.861
 6    30 above         31          0.861
 7    31 above         35          0.972
 8    36 above         35          0.972
 9    39 above         33          0.917
10    41 above         31          0.861
# ℹ 30 more rows
…
Nur für Übungszwecke: Erstelle eine neue Spalte aus der Variable group. Aus above soll EG1, aus below EG2 und aus control KG werden. Verwende dafür eine Kombination aus case_when() (oder recode()) und mutate()

Lösung

dat_full |> 
  mutate(
    group_new = case_when(
      group == "above"   ~ "EG1",
      group == "below"   ~ "EG2",
      group == "control" ~ "KG"
    )
  )

# A tibble: 159 × 37
    code question1 question2 question3 question4 question5 question6 question7
   <dbl>     <dbl>     <dbl>     <dbl>     <dbl>     <dbl>     <dbl>     <dbl>
 1     1         2         3         3         3         2         3         3
 2     2         3         4         3         4         3         3         3
 3     3         2         3         2         1         2         2         2
 4     4         1         2         2         3         1         2         2
 5     5         3         4         4         2         4         4         4
 6     6         1         3         3         4         3         3         3
 7     7         1         3         3         1         2         2         0
 8     8         1         2         3         3         2         1         2
 9     9         2         3         3         3         3         3         3
10    10         1         4         4         4         3         4         4
# ℹ 149 more rows
# ℹ 29 more variables: question8 <dbl>, question9 <dbl>, question10 <dbl>,
#   question11 <dbl>, question12 <dbl>, question13 <dbl>, question14 <dbl>,
#   question15 <dbl>, question16 <dbl>, question17 <dbl>, question18 <dbl>,
#   vp_sum <dbl>, vp_propcorrect <dbl>, cb_sum <dbl>, cb_propcorrect <dbl>,
#   csvtm_sum <dbl>, cvstm_propcorrect <dbl>, strategies <dbl>, pre1 <dbl>,
#   pre2 <dbl>, pre3 <dbl>, pre4 <dbl>, post <dbl>, group <chr>, …

# oder alternativ mit recode()
dat_full |>
  mutate(
    group_new = recode(
      group,
      "above"   = "EG1",
      "below"   = "EG2",
      "control" = "KG"
    )
  )

# A tibble: 159 × 37
    code question1 question2 question3 question4 question5 question6 question7
   <dbl>     <dbl>     <dbl>     <dbl>     <dbl>     <dbl>     <dbl>     <dbl>
 1     1         2         3         3         3         2         3         3
 2     2         3         4         3         4         3         3         3
 3     3         2         3         2         1         2         2         2
 4     4         1         2         2         3         1         2         2
 5     5         3         4         4         2         4         4         4
 6     6         1         3         3         4         3         3         3
 7     7         1         3         3         1         2         2         0
 8     8         1         2         3         3         2         1         2
 9     9         2         3         3         3         3         3         3
10    10         1         4         4         4         3         4         4
# ℹ 149 more rows
# ℹ 29 more variables: question8 <dbl>, question9 <dbl>, question10 <dbl>,
#   question11 <dbl>, question12 <dbl>, question13 <dbl>, question14 <dbl>,
#   question15 <dbl>, question16 <dbl>, question17 <dbl>, question18 <dbl>,
#   vp_sum <dbl>, vp_propcorrect <dbl>, cb_sum <dbl>, cb_propcorrect <dbl>,
#   csvtm_sum <dbl>, cvstm_propcorrect <dbl>, strategies <dbl>, pre1 <dbl>,
#   pre2 <dbl>, pre3 <dbl>, pre4 <dbl>, post <dbl>, group <chr>, …
…
