R u Ready - Hands On – Tidy & Transform / Analyze (Einheiten 9 und 10)
…
Dplyr: Code korrigieren und verbessern

Dieser Code funktioniert nicht. Korrigiere ihn. Achte dabei auf Syntaxfehler.

dat_full |>
  select(code, post, strategies)
  filter(strtegies = "1")

Lösung

dat_full |>
  select(code, post, strategies) |>
  filter(strategies == 1)

# A tibble: 58 × 3
    code  post strategies
   <dbl> <dbl>      <dbl>
 1     1   7            1
 2     2   2.1          1
 3     5   6.3          1
 4     9   7            1
 5    13   4.9          1
 6    15   6.4          1
 7    17   1.3          1
 8    18   3.7          1
 9    20   1.8          1
10    21   4.3          1
# ℹ 48 more rows
…
